…
Read a .gpkg file:

``` r
(poly <- read_sf("gpkg-standardized/EA_1968-06-25.gpkg"))
```

    ## Simple feature collection with 161 features and 37 fields
    ## geometry type:  POLYGON
    ## dimension:      XY
    ## bbox:           xmin: -294110.3 ymin: 2704486 xmax: 1856465 ymax: 5028139
    ## projected CRS:  WGS_1984_Lambert_Conformal_Conic
    ## # A tibble: 161 x 38
    ##    region date       PNT_TYPE E_CT  E_CA  E_CB  E_CC  E_CD  E_SO  E_SA  E_SB 
    ##    <chr>  <date>        <dbl> <chr> <chr> <chr> <chr> <chr> <chr> <chr> <chr>
    ##  1 EA     1968-06-25      118 10    <NA>  <NA>  <NA>  <NA>  <NA>  6     <NA> 
    ##  2 EA     1968-06-25      900 <NA>  <NA>  <NA>  <NA>  <NA>  <NA>  <NA>  <NA> 
    ##  3 EA     1968-06-25      900 <NA>  <NA>  <NA>  <NA>  <NA>  <NA>  <NA>  <NA> 
    ##  4 EA     1968-06-25      123 <NA>  <NA>  <NA>  <NA>  <NA>  <NA>  <NA>  <NA> 
    ##  5 EA     1968-06-25      900 <NA>  <NA>  <NA>  <NA>  <NA>  <NA>  <NA>  <NA> 
    ##  6 EA     1968-06-25      123 <NA>  <NA>  <NA>  <NA>  <NA>  <NA>  <NA>  <NA> 
    ##  7 EA     1968-06-25      123 <NA>  <NA>  <NA>  <NA>  <NA>  <NA>  <NA>  <NA> 
    ##  8 EA     1968-06-25      118 10    <NA>  <NA>  <NA>  <NA>  <NA>  6     <NA> 
    ##  9 EA     1968-06-25      123 <NA>  <NA>  <NA>  <NA>  <NA>  <NA>  <NA>  <NA> 
    ## 10 EA     1968-06-25      900 <NA>  <NA>  <NA>  <NA>  <NA>  <NA>  <NA>  <NA> 
    ## # ... with 151 more rows, and 27 more variables: E_SC <chr>, E_SD <chr>,
    ## #   E_SE <chr>, E_FA <chr>, E_FB <chr>, E_FC <chr>, E_FD <chr>, E_FE <chr>,
    ## #   E_CS <chr>, N_CT <dbl>, N_COI <dbl>, N_CMY <dbl>, N_CSY <dbl>, N_CFY <dbl>,
    ## #   N_CFY_TK <dbl>, N_CFY_M <dbl>, N_CFY_TN <dbl>, N_CYI <dbl>, N_CGW <dbl>,
    ## #   N_CG <dbl>, N_CN <dbl>, N_CB <dbl>, N_CVTK <dbl>, N_CTK <dbl>, N_CM <dbl>,
    ## #   N_CTN <dbl>, geom <POLYGON [m]>
…
(intersected <- st_intersection(target_locations, gpkg_hb))
```

    ## Warning: attribute variables are assumed to be spatially constant throughout all
    ## geometries

    ## Simple feature collection with 200 features and 38 fields
    ## geometry type:  POINT
    ## dimension:      XY
    ## bbox:           xmin: 2191885 ymin: 2568163 xmax: 2534903 ymax: 2618399
    ## projected CRS:  WGS_1984_Lambert_Conformal_Conic
    ## # A tibble: 200 x 39
    ##    label region date       PNT_TYPE E_CT  E_CA  E_CB  E_CC  E_CD  E_SO  E_SA 
    ##  * <chr> <chr>  <date>        <dbl> <chr> <chr> <chr> <chr> <chr> <chr> <chr>
    ##  1 P1    HB     1997-01-01      101 <NA>  <NA>  <NA>  <NA>  <NA>  <NA>  <NA> 
    ##  2 P2    HB     1997-01-01      101 <NA>  <NA>  <NA>  <NA>  <NA>  <NA>  <NA> 
    ##  3 P2    HB     1997-02-01      118 9+    3     6     1     <NA>  7.    1.   
    ##  4 P1    HB     1997-02-01      118 9+    3     5     2     <NA>  7.    7    
    ##  5 P1    HB     1997-03-01      118 9+    3     7     <NA>  <NA>  7.    1.   
    ##  6 P2    HB     1997-03-01      118 9+    2     6     2     <NA>  7.    7    
    ##  7 P1    HB     1997-04-01      118 9+    5     5     <NA>  <NA>  7.    4.   
    ##  8 P2    HB     1997-04-01      118 9+    5     5     <NA>  <NA>  7.    4.   
    ##  9 P2    HB     1997-05-01      118 9+    5     5     <NA>  <NA>  7.    4.   
    ## 10 P1    HB     1997-05-01      118 9+    5     5     <NA>  <NA>  7.    4.   
    ## # ... with 190 more rows, and 28 more variables: E_SB <chr>, E_SC <chr>,
    ## #   E_SD <chr>, E_SE <chr>, E_FA <chr>, E_FB <chr>, E_FC <chr>, E_FD <chr>,
    ## #   E_FE <chr>, E_CS <chr>, N_CT <dbl>, N_COI <dbl>, N_CMY <dbl>, N_CSY <dbl>,
    ## #   N_CFY <dbl>, N_CFY_TK <dbl>, N_CFY_M <dbl>, N_CFY_TN <dbl>, N_CYI <dbl>,
    ## #   N_CGW <dbl>, N_CG <dbl>, N_CN <dbl>, N_CB <dbl>, N_CVTK <dbl>, N_CTK <dbl>,
    ## #   N_CM <dbl>, N_CTN <dbl>, geometry <POINT [m]>
…
## Dataset details

Without downloading any files, you can use zip/meta.csv, gpkg/meta.csv,
gpkg-standardized/meta.csv, and attrs.parquet to examine file metadata.

``` r
(zip_meta <- read_csv("zip/meta.csv", col_types = cols()))
```

    ## # A tibble: 7,457 x 9
    ##    region date       region_code zip    file    file_size gpkg   dsn    url     
    ##    <chr>  <date>     <chr>       <chr>  <chr>       <dbl> <chr>  <chr>  <chr>   
    ##  1 EA     1968-06-25 a11         zip/c~ file/r~    959470 gpkg/~ file/~ https:/~
    ##  2 EA     1968-07-02 a11         zip/c~ file/r~    965518 gpkg/~ file/~ https:/~
    ##  3 EA     1968-07-11 a11         zip/c~ file/r~   1017642 gpkg/~ file/~ https:/~
    ##  4 EA     1968-07-18 a11         zip/c~ file/r~   1047520 gpkg/~ file/~ https:/~
    ##  5 EA     1968-07-25 a11         zip/c~ file/r~   1110248 gpkg/~ file/~ https:/~
    ##  6 EA     1968-08-01 a11         zip/c~ file/r~   1150445 gpkg/~ file/~ https:/~
    ##  7 EA     1968-08-08 a11         zip/c~ file/r~   1198997 gpkg/~ file/~ https:/~
    ##  8 EA     1968-08-15 a11         zip/c~ file/r~   1186817 gpkg/~ file/~ https:/~
    ##  9 EA     1968-08-22 a11         zip/c~ file/r~   1147764 gpkg/~ file/~ https:/~
    ## 10 EA     1968-08-29 a11         zip/c~ file/r~   1111434 gpkg/~ file/~ https:/~
    ## # ... with 7,447 more rows
…
``` r
(gpkg_standardized_meta <- read_csv(
  "gpkg-standardized/meta.csv", 
  col_types = cols()
))
```

    ## # A tibble: 7,429 x 7
    ##    gpkg_standardiz~ gpkg  gpkg_n_features gpkg_xmin gpkg_ymin gpkg_xmax
    ##    <chr>            <chr>           <dbl>     <dbl>     <dbl>     <dbl>
    ##  1 gpkg-standardiz~ gpkg~             161  -294124.   2704501  1856543.
    ##  2 gpkg-standardiz~ gpkg~             165  -294124.   2704501  1856543.
    ##  3 gpkg-standardiz~ gpkg~             186  -294124.   2704501  1856543.
    ##  4 gpkg-standardiz~ gpkg~             201  -294124.   2704501  1856543.
    ##  5 gpkg-standardiz~ gpkg~             229  -294124.   2704501  1856543.
    ##  6 gpkg-standardiz~ gpkg~             255  -294124.   2704501  1856543.
    ##  7 gpkg-standardiz~ gpkg~             258  -294124.   2704501  1856543.
    ##  8 gpkg-standardiz~ gpkg~             260  -294124.   2704501  1856543.
    ##  9 gpkg-standardiz~ gpkg~             250  -294124.   2704501  1856543.
    ## 10 gpkg-standardiz~ gpkg~             240  -294124.   2704501  1856543.
    ## # ... with 7,419 more rows, and 1 more variable: gpkg_ymax <dbl>
…
    ## Warning: package 'arrow' was built under R version 4.0.3

    ## 
    ## Attaching package: 'arrow'

    ## The following object is masked from 'package:utils':
    ## 
    ##     timestamp

``` r
(attrs <- read_parquet("attrs.parquet"))
```

    ## # A tibble: 1,820,631 x 86
    ##    region date       feat_id feat_xmin feat_ymin feat_xmax feat_ymax    AREA
    ##    <chr>  <date>       <dbl>     <dbl>     <dbl>     <dbl>     <dbl>   <dbl>
    ##  1 EA     1968-06-25       1  -294110.  3934007.   419581.  4653566. 1.75e11
    ##  2 EA     1968-06-25       2   596506.  3983926.  1496794.  5028139. 4.45e11
    ##  3 EA     1968-06-25       3    63119.  4219631.   316434.  4576411. 4.43e10
    ##  4 EA     1968-06-25       4   111205.  4570798.   113114.  4573476. 2.74e 6
    ##  5 EA     1968-06-25       5   157003.  4034800.   579976.  4801872. 1.65e11
    ##  6 EA     1968-06-25       6   710878.  4864759.   725815.  4876208. 6.42e 7
    ##  7 EA     1968-06-25       7   634939.  4816370.   699696.  4838190. 2.91e 8
    ##  8 EA     1968-06-25       8   450848.  4336443.   693805.  4818802. 4.02e10
    ##  9 EA     1968-06-25       9   329854.  4677901.   337814.  4682922. 1.58e 7
    ## 10 EA     1968-06-25      10    71723.  4488150.    93596.  4498599. 1.34e 8
    ## # ... with 1,820,621 more rows, and 78 more variables: PERIMETER <dbl>,
    ## #   ARCE00_COV. <int>, ARCE00_COV.ID <int>, A_LEGEND <chr>, REGION <chr>,
    ## #   DATE_CARTE <chr>, SOURCE <chr>, MOD <chr>, EGG.ID <int>, PNT_TYPE <dbl>,
    ## #   EGG_NAME <chr>, EGG_SCALE <int>, EGG_ATTR <chr>, USER_ATTR <chr>,
    ## #   ROTATION <int>, E_CT <chr>, E_CA <chr>, E_CB <chr>, E_CC <chr>, E_CD <chr>,
    ## #   E_SO <chr>, E_SA <chr>, E_SB <chr>, E_SC <chr>, E_SD <chr>, E_SE <chr>,
    ## #   E_FA <chr>, E_FB <chr>, E_FC <chr>, E_FD <chr>, E_FE <chr>, E_CS <chr>,
    ## #   N_CT <dbl>, N_COI <dbl>, N_CMY <dbl>, N_CSY <dbl>, N_CFY <dbl>,
    ## #   N_CFY_TK <dbl>, N_CFY_M <dbl>, N_CFY_TN <dbl>, N_CYI <dbl>, N_CGW <dbl>,
…
